<?xml version="1.0" standalone="no"?>
<!DOCTYPE svg PUBLIC "-//W3C//DTD SVG 20010904//EN"
 "http://www.w3.org/TR/2001/REC-SVG-20010904/DTD/svg10.dtd">
<svg version="1.0" xmlns="http://www.w3.org/2000/svg"
 width="1920.000000pt" height="1920.000000pt" viewBox="0 0 1920.000000 1920.000000"
 preserveAspectRatio="xMidYMid meet">
<metadata>
Created by potrace 1.14, written by Peter Selinger 2001-2017
</metadata>
<g transform="translate(0.000000,1920.000000) scale(0.100000,-0.100000)"
fill="#000000" stroke="none">
<path d="M1201 17995 c-4 -5 -7 -3788 -7 -8405 l1 -8395 8405 0 8405 0 0 8405
0 8405 -8398 0 c-5627 0 -8401 -3 -8406 -10z m1519 -768 l0 -747 -747 2 -748
3 -1 735 c0 404 1 740 3 745 2 7 259 10 748 10 l745 0 0 -748z m1520 744 c3 0
5 -336 5 -746 l0 -745 -747 0 -748 0 0 744 c0 492 3 745 10 748 9 3 1468 2
1480 -1z m1530 0 c4 -1 4 -1032 0 -1444 l0 -47 -747 2 -748 3 0 740 c-1 407 2
742 6 745 6 4 1472 5 1489 1z m1506 0 l21 -1 0 -745 0 -745 -747 0 -747 0 0
743 c0 408 1 744 2 747 3 4 1402 5 1471 1z m1545 -6 c0 -13 0 -1444 0 -1467
-1 -17 -43 -18 -746 -18 -703 0 -745 1 -745 18 -1 9 -2 344 -3 744 -2 629 0
728 13 730 44 9 1480 2 1481 -7z m1516 6 c8 -1 11 -185 11 -746 l0 -745 -748
0 -748 0 0 744 c0 671 2 745 16 748 14 3 1442 2 1469 -1z m1528 0 c8 -1 11
-735 5 -1438 l0 -53 -745 0 c-589 0 -745 3 -745 13 -4 91 -1 1468 3 1474 4 6
1433 10 1482 4z m1530 -16 c2 -11 3 -347 3 -747 l-1 -728 -747 0 -747 0 0 743
c0 408 1 744 2 747 2 3 337 5 744 5 734 0 742 0 746 -20z m1525 16 c3 0 5
-336 5 -746 l0 -745 -747 0 -748 0 0 50 c-1 28 -1 187 -1 355 0 168 0 482 1
698 l0 392 743 -1 c408 -1 744 -2 747 -3z m1528 -744 l2 -747 -747 0 -748 0 0
738 c0 405 3 742 7 747 4 7 260 10 745 10 l738 0 3 -748z m1512 744 c13 -1 15
-90 15 -743 l0 -743 -748 -3 -747 -2 0 747 0 748 733 -1 c402 -1 739 -2 747
-3z m-15240 -2269 l0 -747 -747 0 -748 0 -1 735 c0 404 2 741 4 748 3 9 162
12 748 12 l744 0 0 -748z m1524 6 c-1 -409 -2 -745 -3 -748 0 -3 -336 -5 -746
-5 l-745 0 0 747 0 748 748 0 747 0 -1 -742z m1526 690 c3 -801 -1 -1432 -9
-1437 -13 -8 -1463 -7 -1476 1 -7 4 -10 260 -9 745 1 406 2 739 3 741 0 1 336
2 746 2 l745 0 0 -52z m1526 -695 l-1 -748 -745 0 -745 0 -1 748 -1 747 747 0
747 0 -1 -747z m1525 740 c0 -10 0 -1209 0 -1249 -1 -27 -9 -36 -68 -74 -38
-24 -104 -66 -148 -95 -44 -28 -89 -56 -100 -62 -15 -7 -1145 -12 -1175 -4 -4
1 -4 1328 0 1474 0 16 42 17 745 17 410 0 745 -3 746 -7z m1527 -318 l0 -325
-37 -9 c-20 -5 -52 -12 -71 -15 -55 -9 -72 -13 -115 -24 -22 -6 -51 -13 -65
-16 -52 -10 -239 -67 -345 -104 -251 -90 -453 -191 -749 -375 -11 -7 -38 -24
-59 -39 -22 -16 -43 -28 -48 -28 -4 0 -7 284 -7 630 l0 630 748 0 749 0 -1
-325z m1523 278 c2 -231 0 -656 -4 -660 -3 -2 -49 5 -104 16 -123 25 -261 49
-333 56 -30 3 -64 8 -75 10 -11 2 -72 7 -135 11 -252 17 -606 5 -779 -26 -30
-6 -56 -8 -58 -6 -4 3 -6 439 -4 599 l1 47 745 0 745 0 1 -47z m1526 -687 l0
-735 -96 73 c-393 297 -854 525 -1312 650 l-84 22 -2 350 c-1 192 0 355 2 362
4 9 162 12 748 12 l744 0 0 -734z m1524 727 c3 -18 5 -1469 2 -1478 -4 -11
-1477 -15 -1488 -4 -4 5 -8 860 -5 1437 l0 52 745 0 c410 0 746 -3 746 -7z
m1527 -740 l-3 -748 -745 0 -745 0 0 748 0 747 747 0 748 0 -2 -747z m1527 4
c0 -483 -3 -741 -10 -746 -5 -4 -341 -7 -745 -7 l-735 1 -3 748 -2 747 747 -2
748 -3 0 -738z m-15255 -1529 l0 -748 -27 0 c-209 -3 -1455 0 -1461 3 -9 6 -9
1468 0 1482 4 7 263 10 747 10 l741 0 0 -747z m1520 743 c3 0 5 -336 5 -746
l0 -745 -25 0 c-35 -1 -1431 -1 -1452 0 -17 0 -18 42 -18 743 0 409 2 746 4
748 4 3 1472 4 1486 0z m1530 -26 c3 -205 1 -1458 -2 -1461 -3 -3 -1105 -7
-1418 -4 l-75 0 1 743 c1 408 2 744 3 747 0 3 336 5 746 5 l745 0 0 -30z
m1526 -338 l1 -368 -81 -52 c-44 -29 -126 -81 -183 -117 -134 -85 -645 -412
-799 -512 l-120 -78 -125 -1 c-68 0 -138 0 -155 0 l-31 1 0 748 0 747 746 0
746 0 1 -368z m1134 361 c0 -3 -30 -25 -67 -49 -148 -93 -863 -550 -943 -602
-46 -31 -86 -55 -88 -53 -3 3 -5 473 -2 671 l0 40 550 0 c303 0 550 -3 550 -7z
m6485 0 c7 -4 10 -261 10 -745 l0 -738 -150 -5 c-83 -3 -168 -4 -190 -2 -40 3
-41 4 -64 65 -107 275 -346 663 -590 957 -109 131 -311 341 -400 415 -33 28
-60 52 -60 55 -1 8 1432 6 1444 -2z m1535 -740 c0 -492 -3 -748 -10 -748 -5
-1 -228 -1 -495 -1 -267 0 -599 0 -738 1 l-252 0 1 748 c1 411 2 747 3 747 0
0 336 0 746 0 l745 0 0 -747z m1521 742 c1 -3 2 -339 3 -747 l1 -743 -75 0
c-86 -1 -1351 -1 -1392 0 l-28 0 0 743 c0 409 2 746 4 748 6 6 1486 5 1487 -1z
m-6762 -504 c58 -4 113 -9 121 -11 8 -2 33 -6 55 -9 215 -31 437 -102 660
-211 702 -343 1194 -1027 1273 -1771 15 -144 8 -438 -14 -574 -14 -82 -111
-428 -130 -462 -3 -4 -61 34 -129 83 -219 157 -365 246 -570 346 -60 30 -118
59 -128 64 -48 26 -288 117 -417 159 l-145 47 2 114 c2 118 -10 198 -42 284
-129 342 -510 519 -865 403 -91 -29 -109 -39 -350 -193 -118 -76 -314 -201
-435 -278 -121 -78 -288 -184 -371 -237 -82 -52 -452 -288 -822 -525 -369
-236 -679 -435 -689 -440 -10 -6 -64 -40 -121 -78 -56 -37 -104 -67 -106 -67
-13 0 -205 -135 -246 -173 -214 -197 -245 -553 -72 -806 133 -195 341 -304
577 -302 44 0 91 2 105 5 136 28 208 58 331 138 394 256 1123 715 1190 750 80
41 118 59 234 106 90 36 239 80 330 97 50 10 99 19 110 21 131 26 541 26 681
0 11 -2 39 -7 64 -11 83 -12 284 -68 387 -106 395 -146 746 -398 1004 -720 56
-69 169 -226 169 -234 0 -2 16 -30 36 -61 31 -49 86 -159 139 -277 39 -88 104
-310 119 -402 22 -140 27 -178 31 -235 10 -134 5 -343 -10 -440 -3 -19 -8 -53
-11 -75 -3 -22 -7 -47 -9 -55 -2 -8 -7 -31 -10 -50 -3 -19 -18 -75 -32 -124
-120 -418 -399 -812 -751 -1063 -53 -38 -341 -224 -639 -413 -298 -190 -568
-362 -600 -382 -32 -20 -83 -52 -113 -71 -30 -19 -195 -124 -367 -233 -172
-110 -440 -280 -595 -378 -156 -99 -319 -203 -363 -232 -388 -250 -490 -311
-635 -372 -236 -100 -341 -130 -590 -167 -144 -21 -433 -21 -585 0 -711 101
-1315 500 -1691 1115 -148 243 -252 537 -289 815 -3 28 -9 66 -12 85 -7 45 -7
348 1 420 12 125 60 350 107 503 l31 98 31 -24 c18 -13 48 -34 67 -48 19 -13
37 -26 40 -29 17 -18 264 -178 365 -235 137 -79 336 -175 475 -230 52 -20 104
-41 115 -46 42 -17 269 -89 282 -89 12 0 19 -30 13 -55 -1 -5 -3 -48 -4 -94
-6 -218 99 -431 278 -565 193 -145 448 -180 671 -91 74 30 148 74 435 260 35
23 428 274 782 500 103 66 199 127 212 135 14 8 201 128 415 265 215 138 427
273 470 300 523 332 736 472 779 511 63 56 134 168 162 254 21 63 25 94 24
195 0 104 -4 130 -28 200 -68 197 -218 352 -409 423 -31 12 -69 24 -84 27 -16
3 -39 7 -53 10 -49 11 -206 5 -265 -10 -136 -35 -119 -25 -938 -547 -97 -62
-195 -124 -217 -138 -22 -14 -93 -58 -157 -99 -283 -179 -574 -277 -948 -321
-91 -11 -452 -5 -530 9 -33 5 -78 12 -100 16 -177 26 -460 121 -643 217 -230
120 -395 240 -578 423 -366 363 -577 786 -649 1295 -13 91 -15 466 -2 515 3
11 8 43 11 70 55 408 277 837 590 1139 121 118 213 185 483 357 48 31 356 226
683 434 327 208 685 436 795 506 110 70 232 147 270 172 979 624 1112 706
1230 763 258 124 543 198 805 211 69 3 126 6 127 7 2 2 76 -1 192 -8z m-8491
-1767 l2 -746 -747 1 -748 1 -1 740 c0 407 1 743 3 746 1 3 337 6 745 5 l743
-1 3 -746z m1527 4 c0 -653 -2 -744 -15 -747 -8 -3 -345 -4 -747 -4 l-733 1 0
747 0 747 748 0 747 0 0 -744z m1526 693 c2 -157 2 -157 -49 -201 -99 -83
-342 -335 -433 -450 -187 -235 -363 -527 -455 -756 l-15 -36 -272 0 -272 0 0
747 0 747 747 0 748 0 1 -51z m269 44 c0 -4 -19 -20 -42 -35 -24 -16 -77 -54
-119 -86 l-77 -58 1 93 0 94 119 0 c65 0 118 -4 118 -8z m8885 -741 l0 -747
-68 1 -67 2 -4 265 c-2 146 -6 285 -9 310 -4 25 -9 72 -13 105 -3 33 -7 62 -9
65 -2 3 -6 28 -9 55 -19 139 -71 353 -131 530 -25 77 -49 145 -51 151 -3 8 47
11 178 11 l183 0 0 -748z m1525 1 l0 -747 -747 1 -748 1 0 746 0 746 747 0
748 0 0 -747z m1510 744 c13 -3 15 -93 15 -746 l0 -743 -745 0 -745 0 -3 746
-2 746 732 1 c403 0 740 -1 748 -4z m-15240 -2266 c0 -412 -3 -748 -7 -749
-64 -4 -1476 1 -1481 6 -4 4 -7 339 -7 745 l0 739 25 3 c14 2 350 3 748 3
l722 0 0 -747z m1515 742 c7 0 10 -255 10 -745 0 -740 0 -745 -20 -746 -29 0
-1381 0 -1432 0 l-43 1 0 744 0 745 43 3 c31 2 1376 1 1442 -2z m561 -3 c2 -2
-7 -35 -22 -73 -51 -137 -119 -367 -138 -467 -3 -15 -10 -54 -16 -87 -5 -33
-13 -72 -16 -87 -2 -16 -7 -44 -10 -63 -29 -221 -37 -334 -36 -552 0 -155 0
-158 -21 -159 -96 -3 -250 0 -255 6 -4 4 -7 338 -7 743 l0 737 50 5 c57 6 465
3 471 -3z m10129 -739 c0 -563 -3 -742 -12 -745 -13 -5 -593 -10 -593 -5 0 2
17 34 39 70 152 262 285 613 346 917 28 140 55 285 53 294 -1 3 2 26 5 51 10
65 16 122 17 142 0 14 12 18 68 20 37 2 69 2 72 0 3 -2 5 -337 5 -744z m1498
742 l27 0 0 -745 0 -745 -42 -1 c-59 0 -1408 0 -1433 0 -20 1 -20 8 -20 744
l0 742 40 5 c29 4 1221 4 1428 0z m1545 -5 c4 -4 7 -339 7 -746 l0 -739 -45
-1 c-55 0 -1420 0 -1437 0 -10 1 -13 157 -13 745 0 689 1 745 17 748 33 6
1465 0 1471 -7z m-15253 -2265 l0 -745 -745 0 -745 0 -1 735 c0 404 2 740 4
747 3 8 189 11 745 10 l742 -2 0 -745z m1531 10 c0 -404 -2 -740 -4 -747 -2
-8 -195 -11 -748 -11 l-744 0 0 748 0 748 747 -1 748 -2 1 -735z m319 710 c2
-14 6 -59 9 -100 3 -41 8 -84 10 -95 2 -11 7 -42 10 -70 6 -42 23 -139 42
-231 52 -260 161 -556 322 -875 1 -3 -11 -26 -28 -51 l-31 -46 -297 -1 c-163
0 -304 2 -312 4 -13 4 -15 95 -14 747 1 409 2 744 3 745 0 1 65 1 142 0 l142
-2 2 -25z m10360 -720 l0 -748 -147 -1 -148 0 -1 27 c0 15 -2 41 -4 57 -2 17
-7 55 -10 85 -9 77 -14 113 -31 210 -8 47 -17 94 -19 105 -33 196 -153 548
-269 787 -31 64 -56 120 -56 124 0 4 14 28 30 54 l31 48 312 0 312 0 0 -748z
m1525 0 l0 -748 -732 0 c-403 -1 -740 1 -748 3 -13 4 -15 94 -14 737 1 403 2
738 3 744 1 9 195 12 746 12 l745 0 0 -748z m1525 0 l0 -745 -748 -2 -747 -1
0 748 0 748 747 -1 748 -2 0 -745z m-15287 -779 l32 -1 0 -745 0 -745 -32 0
c-45 -1 -1373 -1 -1423 0 l-40 0 0 743 0 742 45 5 c34 4 1214 4 1418 1z m1545
-4 c9 -3 12 -164 12 -740 0 -404 -3 -738 -7 -742 -3 -4 -339 -7 -745 -6 l-738
0 -3 745 -2 745 37 3 c61 5 1432 1 1446 -5z m635 4 c8 -1 2 -20 -18 -53 -146
-251 -276 -579 -344 -868 -25 -102 -28 -121 -42 -205 -3 -22 -8 -43 -9 -46 -2
-3 -7 -37 -10 -75 -4 -38 -8 -71 -10 -74 -2 -3 -6 -41 -10 -85 -4 -44 -8 -81
-9 -82 -2 -2 -86 -5 -116 -4 l-25 1 0 745 c0 738 0 744 20 747 16 2 522 1 573
-1z m10057 -745 l0 -746 -50 -1 c-187 -2 -468 1 -472 5 -3 2 9 40 25 83 51
131 124 396 147 533 3 19 8 42 10 50 2 8 6 38 10 65 3 28 10 78 15 111 16 102
25 259 25 456 l0 187 25 3 c14 2 79 2 145 1 l120 -1 0 -746z m1518 745 c4 -1
7 -336 7 -746 l0 -745 -42 0 c-49 -1 -1428 -1 -1443 0 -16 0 -14 1484 2 1490
9 4 1425 4 1476 1z m1520 -4 c10 -4 12 -157 11 -738 -1 -404 -2 -738 -3 -744
-1 -7 -257 -10 -746 -10 l-745 0 0 747 0 747 23 3 c36 5 1446 1 1460 -5z
m-15245 -2268 l2 -746 -745 0 c-675 0 -745 2 -746 16 -3 34 -5 1466 -3 1472 2
3 338 5 746 5 l743 -1 3 -746z m1512 745 c13 -3 15 -94 15 -747 l0 -744 -747
0 -748 0 0 747 0 748 733 0 c402 0 739 -1 747 -4z m185 -242 c1 -237 6 -333
25 -452 5 -30 12 -73 15 -95 10 -71 17 -109 37 -195 11 -47 22 -95 24 -107 9
-45 74 -261 98 -326 15 -37 26 -69 26 -71 0 -2 -82 -3 -182 -3 l-183 0 0 741
c-1 480 3 743 9 748 6 4 37 7 71 7 l60 0 0 -247z m10510 -502 l0 -747 -747 0
-748 0 0 102 0 102 82 74 c370 331 648 714 848 1165 l22 51 272 0 271 0 0
-747z m1525 0 l0 -747 -747 1 -748 1 0 740 c-1 420 3 743 8 746 5 4 342 6 748
6 l739 0 0 -747z m1522 721 c2 -14 3 -350 3 -746 l0 -720 -748 -1 -747 -1 0
747 0 747 744 0 744 0 4 -26z m-4575 -1380 l0 -88 -123 0 -123 0 72 50 c40 27
94 67 121 88 27 22 50 39 51 39 1 0 2 -40 2 -89z m-10704 -121 l27 0 -2 -747
-3 -748 -745 0 -745 0 0 745 0 745 35 5 c26 4 1166 4 1433 0z m1302 0 l250 0
0 -747 0 -748 -748 0 -747 0 0 747 c0 488 3 747 10 750 5 2 229 2 497 1 269
-1 601 -2 738 -3z m665 -11 c0 -16 44 -113 132 -289 214 -429 497 -795 891
-1151 l48 -44 -718 0 c-395 0 -723 3 -728 7 -7 4 -10 261 -10 745 l0 738 150
5 c167 6 235 2 235 -11z m8671 12 l66 -1 -1 -747 -1 -748 -743 0 c-652 0 -743
2 -746 15 -7 24 -4 707 3 717 5 9 151 102 927 595 143 91 269 167 279 169 10
2 48 3 84 2 36 -1 96 -2 132 -2z m1544 -1 l50 0 0 -745 c0 -410 -2 -746 -5
-746 -3 -1 -339 -2 -747 -3 l-743 -1 0 152 c-1 84 -1 398 -1 698 0 300 0 567
1 594 0 49 1 50 33 53 17 2 331 2 697 1 366 -2 688 -3 715 -3z m1303 0 l272 0
0 -744 c0 -586 -3 -745 -12 -748 -11 -4 -1464 -3 -1478 1 -3 0 -5 336 -5 746
l0 744 50 3 c27 2 241 2 475 1 234 -1 548 -2 698 -3z m1793 0 c1 -3 2 -339 3
-747 1 -488 -2 -744 -9 -746 -5 -2 -341 -3 -745 -3 l-735 1 -3 747 -2 747 127
3 c222 5 1363 3 1364 -2z m-6100 -1081 c0 -162 0 -321 -1 -354 l0 -60 -554 0
c-305 0 -552 3 -550 7 2 3 98 66 212 138 114 72 290 185 392 250 102 66 223
143 270 172 47 29 117 73 155 99 39 26 71 45 73 44 2 -2 3 -135 3 -296z
m-9153 -1192 l2 -747 -745 0 c-589 0 -745 3 -746 13 -6 51 -3 1473 2 1477 4 3
339 5 746 5 l738 0 3 -748z m1527 0 l0 -747 -747 0 -748 0 0 743 c0 409 2 746
4 748 3 2 339 4 748 4 l743 0 0 -748z m1520 742 c4 -5 8 -860 5 -1436 l0 -53
-745 0 c-410 0 -746 3 -746 8 -3 17 -5 1468 -2 1477 4 11 1477 15 1488 4z
m6105 -39 c1 -56 1 -1338 0 -1402 l0 -48 -745 0 -745 0 -1 38 c-5 330 1 1246
8 1253 5 5 78 53 162 107 l153 97 584 0 584 0 0 -45z m1527 -702 l0 -748 -747
0 -747 0 0 748 0 747 747 0 747 0 0 -747z m1528 0 l0 -748 -747 0 -748 0 0 38
c-3 198 1 1445 4 1450 2 4 339 7 747 7 l744 0 0 -747z m1525 0 l0 -748 -745 0
c-589 0 -745 3 -746 13 -3 22 -5 1472 -3 1477 1 3 338 5 748 5 l746 0 0 -747z
m1526 12 c0 -404 -2 -741 -4 -747 -3 -10 -162 -13 -748 -13 l-744 0 0 748 0
747 747 0 748 0 1 -735z m-11883 496 c336 -222 755 -413 1132 -514 l70 -19 1
-362 2 -361 -747 0 -748 0 0 734 0 733 104 -78 c58 -43 141 -103 186 -133z
m4255 -621 l0 -635 -748 0 -748 0 1 327 2 327 130 26 c430 88 815 245 1204
490 86 54 157 99 158 99 0 1 1 -285 1 -634z m-2905 54 c50 -11 105 -22 120
-24 16 -2 40 -6 55 -9 33 -6 79 -13 157 -22 33 -3 68 -8 78 -10 125 -23 592
-23 789 1 72 9 124 16 151 21 21 3 27 0 28 -13 0 -26 0 -551 0 -596 l-1 -37
-746 2 -746 3 1 330 c0 182 0 340 1 353 0 27 -2 27 113 1z m-4725 -1466 l-3
-748 -730 0 c-401 -1 -737 1 -745 3 -13 3 -15 92 -14 745 1 408 2 743 3 745 0
1 336 2 746 2 l745 0 -2 -747z m1527 10 c0 -406 -3 -743 -7 -748 -4 -7 -259
-10 -740 -9 -403 1 -736 2 -740 3 -5 0 -8 336 -8 746 l0 745 748 0 747 0 0
-737z m1525 687 c1 -27 1 -187 1 -355 0 -168 0 -482 -1 -698 l0 -392 -742 1
c-409 1 -745 2 -748 3 -3 0 -5 336 -5 746 l0 745 747 0 748 0 0 -50z m1525
-700 l0 -745 -730 0 c-401 -1 -737 1 -746 3 -14 3 -16 78 -16 748 l0 744 746
-2 746 -3 0 -745z m1526 713 c4 -253 -1 -1446 -6 -1451 -4 -4 -339 -7 -746 -7
l-739 0 0 70 c-1 86 -1 1347 0 1393 l0 32 745 0 745 0 1 -37z m1525 -710 c1
-409 -1 -744 -5 -744 -17 -4 -1468 -5 -1478 -1 -8 2 -11 192 -11 740 0 405 2
740 5 745 2 4 338 6 746 5 l742 -3 1 -742z m1524 735 c1 -16 1 -1365 0 -1433
l0 -50 -745 0 c-655 0 -745 2 -746 15 0 19 0 1462 0 1473 1 4 336 7 746 7 589
0 745 -3 745 -12z m1526 -735 l-1 -748 -746 0 -746 0 0 740 c0 407 2 743 4
748 2 4 338 7 747 7 l743 0 -1 -747z m1529 4 c0 -483 -3 -741 -10 -745 -14 -9
-1476 -9 -1482 0 -3 6 -7 1426 -3 1481 0 4 336 6 747 5 l748 -3 0 -738z m1525
-1 c0 -586 -3 -745 -12 -748 -7 -2 -344 -4 -748 -4 l-735 1 -1 740 c0 407 1
743 3 748 2 4 339 7 749 7 l744 0 0 -744z m1525 -3 c0 -490 -3 -743 -10 -744
-5 -1 -342 -2 -747 -3 l-738 -1 0 748 0 747 747 -2 748 -3 0 -742z"/>
</g>
</svg>
